<svg width="95" height="133" viewBox="0 0 95 133" fill="none" xmlns="http://www.w3.org/2000/svg">
<path d="M87.0562 33.1013C78.0182 8.39089 62.9214 1 49 1C23.3188 1 1 30.3253 1 66.5C1 102.675 21.8188 132 47.5 132C73.1812 132 94 102.675 94 66.5C94 66.5 92.6249 48.5552 80.5 50.6334" stroke="#003A4E"/>
<path d="M47 66.5C47 36.9353 67.5 36.9531 67.5 66.5C67.5 96.0469 52.7873 104.5 47.5 104.5C42.2127 104.5 27.5 97.4587 27.5 66.5C27.5 35.5413 41.941 28.5 47.5 28.5C53.059 28.5 55.3556 24.2091 54.5805 19.9754C53.8054 15.7417 49.6113 14.5 47.5 14.5C29.2746 14.5 14.5 37.7812 14.5 66.5C14.5 95.2188 29.2746 118.5 47.5 118.5C65.7254 118.5 80.5 95.2188 80.5 66.5" stroke="#003A4E"/>
<path fill-rule="evenodd" clip-rule="evenodd" d="M47 70C48.1046 70 49 69.1046 49 68C49 66.8954 48.1046 66 47 66C45.8954 66 45 66.8954 45 68C45 69.1046 45.8954 70 47 70Z" fill="#003A4E"/>
<path fill-rule="evenodd" clip-rule="evenodd" d="M72.9984 47.6432C72.9984 47.6432 73.5433 50.7367 73.7797 52.1778C73.8658 52.7021 72.9188 53.3861 72.9984 53.8917C73.0922 54.4869 73.1815 55.0691 73.2665 55.6384C73.3724 56.3483 74.5014 56.8691 74.5936 57.5388C75.2153 62.052 75.5262 65.653 75.5262 68.3417C75.5262 70.9645 76.2897 75.025 77.0844 76.7692C77.7047 81.9943 76.6527 86.8208 77.7047 86.8208C78.7566 86.8208 80.4291 81.4247 81.2712 76.7692C82.6994 74.2007 82.6994 70.581 82.9974 68.3417C83.7178 62.93 82.5865 50.4165 82.1393 46.2019C77.144 44.9874 72.9984 47.6432 72.9984 47.6432Z" fill="#003A4E"/>
<path fill-rule="evenodd" clip-rule="evenodd" d="M78.1128 15.7083L83.2317 27.547L85.9577 33.5595L88.5095 32.4947L85.9577 25.9372L78.1128 15.7083Z" fill="#003A4E"/>
</svg>
