<?xml version="1.0" encoding="utf-8"?>
<!-- Generator: Adobe Illustrator 24.0.2, SVG Export Plug-In . SVG Version: 6.00 Build 0)  -->
<svg version="1.1" id="Layer_1" xmlns="http://www.w3.org/2000/svg" xmlns:xlink="http://www.w3.org/1999/xlink" x="0px" y="0px"
	 viewBox="0 0 16 12" style="enable-background:new 0 0 16 12;" xml:space="preserve">
<style type="text/css">
	.st0{fill:#000;}
</style>
<title>Path 6 Copy 7</title>
<desc>Created with Sketch.</desc>
<g id="Desk-main">
	<g id="_x30_2-02-d" transform="translate(-1010.000000, -380.000000)">
		<polygon class="st0" points="1015.9,391.6 1010.2,385.1 1011.8,383.6 1016,388.4 1024.2,380.2 1025.8,381.8 		"/>
	</g>
</g>
</svg>
